…
Population Density and Deaths
-----------------------------

Because it is intuitive to believe that population density has an effect
on the number of the deaths ocurring per sq mile in a given county, we
will explore that relationship.

    county_features %>% 
      filter(days_since_thresh == 17) %>% 
      select(county, state, deaths_per_sq_mi, popdensity) %>% 
      arrange(desc(deaths_per_sq_mi))

    ## # A tibble: 1,203 x 4
    ##    county        state         deaths_per_sq_mi popdensity
    ##    <chr>         <chr>                    <dbl>      <dbl>
    ##  1 New York City New York                7.97       69468.
    ##  2 Hudson        New Jersey              0.671      13731.
    ##  3 Union         New Jersey              0.194       5216.
    ##  4 Nassau        New York                0.151       4705.
    ##  5 Philadelphia  Pennsylvania            0.149      11380.
    ##  6 Essex         New Jersey              0.127       6212.
    ##  7 Middlesex     New Jersey              0.126       2622.
    ##  8 Westchester   New York                0.0906      2205.
    ##  9 Orleans       Louisiana               0.0885      2029.
    ## 10 Suffolk       Massachusetts           0.0688     12416.
    ## # … with 1,193 more rows
…
